{
    "swagger": "2.0",
    "info": {
        "version": "1.0.0",
        "title": "Good Worker",
        "description": "Job Portal for the blue collored",
        "license": {
        "name": "MIT",
        "url": "https://opensource.org/licenses/MIT"
        }
    },
    "host": "localhost:8000",
    "basePath": "/",
    "tags": [
        {
            "name": "Job Postings",
            "description": "API for users in the system"
        }
    ],
    "schemes": [
        "http"
    ],
    "consumes": [
        "application/json"
    ],
    "produces": [
        "application/json"
    ],
    "paths": {
            "/jobs/": {
                "get": {
                    "tags": [
                    "Get all Jobs"
                    ],
                    "summary": "Get all jobs in system",
                    "responses": {
                        "200": {
                            "description": "OK"
                        }
                    }
                }
            },
            "/applications": {
                "get": {
                    "tags": [
                    "Get all applications"
                    ],
                    "summary": "Get all applications in system",
                    "responses": {
                        "200": {
                            "description": "OK"
                        }
                    }
                }
            },
            
            "/jobs/{id}": {
                "parameters": [
                    {
                      "name": "id",
                      "in": "path",
                      "required": true,
                      "description": "ID of user that we want to find",
                      "type": "string"
                    }
                  ],
                "get": {
                    "tags": [
                        "Get particular job details"
                    ],
                    "summary": "Get all users in system",
                    "responses": {
                        "200": {
                            "description": "OK"
                        }
                    }
                }
            },
                 "definitions": {
                    "job": {
                        "required": [
                            "_id"
                        ]
                    }
                },

                "/add": {
                    "post": {
                      "tags": [
                        "Create a new job"
                      ],
                      "description": "Create new job in system",
                      "parameters": [
                        {
                          "name": "job",
                          "in": "body",
                          "description": "New job to be created in the system"
                        }
                      ],
                      "produces": [
                        "application/json"
                      ],
                      "responses": {
                        "200": {
                          "description": "New job is created"
                        }
                      }
                    } 
                  },

                "/apply": {
                    "post": {
                      "tags": [
                        "Apply for a job"
                      ],
                      "description": "Candidate applies for a job role",
                      "parameters": [
                        {
                          "name": "job",
                          "in": "body",
                          "description": "Suitable candidate applies for the relevent job position"
                        }
                      ],
                      "produces": [
                        "application/json"
                      ],
                      "responses": {
                        "200": {
                          "description": "Candidate successfully applies for the job"
                        }
                      }
                    } 
                  },

                  "/update/{id}": {
                    "parameters": [
                        {
                          "name": "id",
                          "in": "path",
                          "required": true,
                          "description": "ID of job that we want to find",
                          "type": "string"
                        }
                      ],
                    "put": {
                        "summary": "Update job with given ID",
                        "tags": [
                            "Update job with given ID"
                        ],
                        "parameters": [
                            {
                                "name": "job",
                                "in": "body",
                                "description": "Job with new values of properties"
                            }
                        ],
                        "responses": {
                            "200": {
                                "description": "Job is updated"
                            }
                        },
                        "definitions": {
                            "job": {
                                "required": [
                                    "_id"
                                ]
                            }
                        }
                    }
                },
                "/delete/{id}": {
                    "parameters": [
                        {
                          "name": "id",
                          "in": "path",
                          "required": true,
                          "description": "ID of job that we want to find",
                          "type": "string"
                        }
                      ],
                "delete": {
                    "summary": "Delete a job with given ID",
                    "tags": [
                        "Delete a job with given ID"
                    ],
                    "responses": {
                        "200": {
                        "description": "Job is deleted"
                        }
                    }
                }
            }
        }
}
